module github.com/robopuff/gopubsub/client

go 1.16

require (
	github.com/gdamore/tcell/v2 v2.3.3
	github.com/gorilla/websocket v1.4.2
	github.com/ilyakaznacheev/cleanenv v1.2.5
	github.com/rivo/tview v0.0.0-20210624165335-29d673af0ce2
)
